// Jest Snapshot v1, https://goo.gl/fbAQLP

exports[`comparison compareReports matches HTML 1`] = `
"<!DOCTYPE html>
<html lang=\\"en\\">
  <head>
    <meta charset=\\"UTF-8\\" />
    <meta content=\\"text/html;charset=utf-8\\" http-equiv=\\"Content-Type\\" />
    <meta content=\\"utf-8\\" http-equiv=\\"encoding\\" />
    <meta name=\\"viewport\\" content=\\"width=device-width, initial-scale=1\\" />
    <link
      rel=\\"stylesheet\\"
      href=\\"https://cdnjs.cloudflare.com/ajax/libs/pure/2.0.1/pure.min.css\\"
      integrity=\\"sha256-8k2bI9DxW/KyQRFIULiMek8FDD8wX6wO4T0ejDpPpd4=\\"
      crossorigin=\\"anonymous\\"
    />
    <title>Webpack analysis</title>
  </head>
  <body>
    <main>
      <h1>Webpack analysis</h1>
      <p>
        This compares changes in bundle size for entry points between the
        commits

        <a
          href=\\"https://gitlab.com/gitlab-org/gitlab/-/commit/e3c865654e4f62097d87e071804b55114ce2a197\\"
        >
          e3c86565 (2020-04-06T10:38)
        </a>
        and
        <a
          href=\\"https://gitlab.com/gitlab-org/gitlab/-/commit/4237065ffb64301b5835a6bfb2234f79af3f3aff\\"
        >
          4237065f (2020-04-20T12:06)
        </a>
      </p>

      <p>
        <strong>Note:</strong>
        We do not have exact data for
        <a
          href=\\"https://gitlab.com/gitlab-org/gitlab/-/commit/e3c865654e4f62097d87e071804b55114ce2a197\\"
        >
          e3c86565 (2020-04-06T10:38) </a
        >. So we have used data from:
        <a
          href=\\"https://gitlab.com/gitlab-org/gitlab/-/commit/1b25803320eb977e51b83cc96d50a0945df0dba0\\"
        >
          1b258033 (2020-04-06T10:39) </a
        >.<br />
        The target commit was too new, so we used the latest commit from master
        we have info on.<br />
        It might help to rerun the <code>bundle-size-review</code> job<br />
        This might mean that you have a few false positives in this report. If
        something unrelated to your code changes is reported, you can check
        <a
          href=\\"https://gitlab.com/gitlab-org/gitlab/-/compare/1b25803320eb977e51b83cc96d50a0945df0dba0...e3c865654e4f62097d87e071804b55114ce2a197\\"
          >this comparison</a
        >
        in order to see if they caused this change.
      </p>

      <hr />

      <h2>Special assets</h2>
      <p>We have two special assets we are considering:</p>
      <ul>
        <li>
          <code>mainChunk</code> – This chunk is loaded on every page. Thus
          minimizing it's impact is paramount.
        </li>
        <li><code>average</code> – The average size of an entry point.</li>
      </ul>

      <table class=\\"pure-table\\">
        <thead>
          <tr>
            <th>Entrypoint / Name</th>
            <th>Size before</th>
            <th>Size after</th>
            <th>Diff</th>
            <th>Diff in percent</th>
          </tr>
        </thead>
        <tbody>
          <tr>
            <td><code>mainChunk</code></td>
            <td>6.68 MB</td>
            <td>7.25 MB</td>
            <td>+585.94 KB</td>
            <td>8.6 %</td>
          </tr>

          <tr>
            <td><code>average</code></td>
            <td>8.01 MB</td>
            <td>7.63 MB</td>
            <td>-390.63 KB</td>
            <td>-4.8 %</td>
          </tr>
        </tbody>
      </table>

      <h2>Significant Growth</h2>
      <p>
        This section shows all entry points that grew significantly between the
        two commits. It doesn't consider the size of the main chunk.
      </p>

      <table class=\\"pure-table\\">
        <thead>
          <tr>
            <th>Entrypoint / Name</th>
            <th>Size before</th>
            <th>Size after</th>
            <th>Diff</th>
            <th>Diff in percent</th>
          </tr>
        </thead>
        <tbody>
          <tr>
            <td>
              <details>
                <summary><code>pages.fixture.growth</code></summary>
                <p>Chunks loaded on the entry point:</p>
                <ul>
                  <li>main.chunk.js</li>
                  <li>pages.fixture.growth.chunk.js</li>
                </ul>
              </details>
            </td>
            <td>476.84 MB</td>
            <td>953.67 MB</td>
            <td>+476.84 MB</td>
            <td>100.0 %</td>
          </tr>
        </tbody>
      </table>

      <h2>Significant Reduction</h2>
      <p>
        This section shows all entry points that were reduced significantly
        between the two commits. It doesn't consider the size of the main chunk.
      </p>

      <table class=\\"pure-table\\">
        <thead>
          <tr>
            <th>Entrypoint / Name</th>
            <th>Size before</th>
            <th>Size after</th>
            <th>Diff</th>
            <th>Diff in percent</th>
          </tr>
        </thead>
        <tbody>
          <tr>
            <td>
              <details>
                <summary><code>pages.fixture.shrinkage</code></summary>
                <p>Chunks loaded on the entry point:</p>
                <ul>
                  <li>main.chunk.js</li>
                  <li>pages.fixture.shrinkage.chunk.js</li>
                </ul>
              </details>
            </td>
            <td>976.56 KB</td>
            <td>48.83 KB</td>
            <td>-927.73 KB</td>
            <td>-95.0 %</td>
          </tr>
        </tbody>
      </table>

      <h2>New entry points</h2>
      <p>
        This section shows all entry points that have been added between the two
        commits.
      </p>

      <table class=\\"pure-table\\">
        <thead>
          <tr>
            <th>Entrypoint / Name</th>
            <th>Size before</th>
            <th>Size after</th>
            <th>Diff</th>
            <th>Diff in percent</th>
          </tr>
        </thead>
        <tbody>
          <tr>
            <td>
              <details>
                <summary><code>pages.fixture.added</code></summary>
                <p>Chunks loaded on the entry point:</p>
                <ul>
                  <li>main.chunk.js</li>
                  <li>pages.fixture.added.chunk.js</li>
                </ul>
              </details>
            </td>
            <td>0 Bytes</td>
            <td>48.83 KB</td>
            <td>+48.83 KB</td>
            <td>100.0 %</td>
          </tr>
        </tbody>
      </table>

      <h2>Deleted entry points</h2>
      <p>
        This section shows all entry points that have been removed between the
        two commits.
      </p>

      <table class=\\"pure-table\\">
        <thead>
          <tr>
            <th>Entrypoint / Name</th>
            <th>Size before</th>
            <th>Size after</th>
            <th>Diff</th>
            <th>Diff in percent</th>
          </tr>
        </thead>
        <tbody>
          <tr>
            <td>
              <details>
                <summary><code>pages.fixture.deleted</code></summary>
                <p>Chunks loaded on the entry point:</p>
                <ul></ul>
              </details>
            </td>
            <td>60.55 KB</td>
            <td>0 Bytes</td>
            <td>-60.55 KB</td>
            <td>-100.0 %</td>
          </tr>
        </tbody>
      </table>

      <h2>Largest entrypoints</h2>
      <p>Below you find all entry points, sorted by size as of</p>

      <table class=\\"pure-table\\">
        <thead>
          <tr>
            <th>Entrypoint / Name</th>
            <th>Size before</th>
            <th>Size after</th>
            <th>Diff</th>
            <th>Diff in percent</th>
          </tr>
        </thead>
        <tbody>
          <tr>
            <td>
              <details>
                <summary><code>pages.fixture.growth</code></summary>
                <p>Chunks loaded on the entry point:</p>
                <ul>
                  <li>main.chunk.js</li>
                  <li>pages.fixture.growth.chunk.js</li>
                </ul>
              </details>
            </td>
            <td>476.84 MB</td>
            <td>953.67 MB</td>
            <td>+476.84 MB</td>
            <td>100.0 %</td>
          </tr>

          <tr>
            <td>
              <details>
                <summary><code>pages.fixture.added</code></summary>
                <p>Chunks loaded on the entry point:</p>
                <ul>
                  <li>main.chunk.js</li>
                  <li>pages.fixture.added.chunk.js</li>
                </ul>
              </details>
            </td>
            <td>0 Bytes</td>
            <td>48.83 KB</td>
            <td>+48.83 KB</td>
            <td>100.0 %</td>
          </tr>

          <tr>
            <td>
              <details>
                <summary><code>pages.fixture.shrinkage</code></summary>
                <p>Chunks loaded on the entry point:</p>
                <ul>
                  <li>main.chunk.js</li>
                  <li>pages.fixture.shrinkage.chunk.js</li>
                </ul>
              </details>
            </td>
            <td>976.56 KB</td>
            <td>48.83 KB</td>
            <td>-927.73 KB</td>
            <td>-95.0 %</td>
          </tr>

          <tr>
            <td>
              <details>
                <summary><code>pages.fixture.insignificant</code></summary>
                <p>Chunks loaded on the entry point:</p>
                <ul>
                  <li>main.chunk.js</li>
                  <li>pages.fixture.insignificant.chunk.js</li>
                </ul>
              </details>
            </td>
            <td>4.9 KB</td>
            <td>4.88 KB</td>
            <td>-</td>
            <td>-0.4 %</td>
          </tr>
        </tbody>
      </table>
    </main>
  </body>
  <style>
    main {
      margin: 0 auto;
      max-width: 70rem;
      padding: 1rem;
    }

    table {
      margin: 1rem 0;
    }

    table td {
      min-width: 6rem;
    }

    .toggler {
      margin-left: 0.5rem;
    }

    .toggler:checked + table tr.hidden {
      display: table-row !important;
    }
  </style>
</html>
"
`;
